%TF.GenerationSoftware,KiCad,Pcbnew,7.0.7-7.0.7~ubuntu22.04.1*%
%TF.CreationDate,2023-09-19T17:00:24-07:00*%
%TF.ProjectId,lipo-power-breakout,6c69706f-2d70-46f7-9765-722d62726561,rev?*%
%TF.SameCoordinates,Original*%
%TF.FileFunction,Soldermask,Bot*%
%TF.FilePolarity,Negative*%
%FSLAX46Y46*%
G04 Gerber Fmt 4.6, Leading zero omitted, Abs format (unit mm)*
G04 Created by KiCad (PCBNEW 7.0.7-7.0.7~ubuntu22.04.1) date 2023-09-19 17:00:24*
%MOMM*%
%LPD*%
G01*
G04 APERTURE LIST*
G04 Aperture macros list*
%AMRoundRect*
0 Rectangle with rounded corners*
0 $1 Rounding radius*
0 $2 $3 $4 $5 $6 $7 $8 $9 X,Y pos of 4 corners*
0 Add a 4 corners polygon primitive as box body*
4,1,4,$2,$3,$4,$5,$6,$7,$8,$9,$2,$3,0*
0 Add four circle primitives for the rounded corners*
1,1,$1+$1,$2,$3*
1,1,$1+$1,$4,$5*
1,1,$1+$1,$6,$7*
1,1,$1+$1,$8,$9*
0 Add four rect primitives between the rounded corners*
20,1,$1+$1,$2,$3,$4,$5,0*
20,1,$1+$1,$4,$5,$6,$7,0*
20,1,$1+$1,$6,$7,$8,$9,0*
20,1,$1+$1,$8,$9,$2,$3,0*%
G04 Aperture macros list end*
%ADD10O,1.168400X2.667000*%
%ADD11O,1.168400X2.159000*%
%ADD12C,3.000000*%
%ADD13RoundRect,0.250000X0.625000X-0.350000X0.625000X0.350000X-0.625000X0.350000X-0.625000X-0.350000X0*%
%ADD14O,1.750000X1.200000*%
%ADD15R,1.700000X1.700000*%
%ADD16O,1.700000X1.700000*%
G04 APERTURE END LIST*
D10*
%TO.C,J3*%
X128609999Y-138699300D03*
X137250003Y-138699300D03*
D11*
X128609999Y-133339300D03*
X137250003Y-133339300D03*
%TD*%
D12*
%TO.C,TP3*%
X120200000Y-114600000D03*
%TD*%
%TO.C,TP1*%
X134100000Y-113000000D03*
%TD*%
%TO.C,TP2*%
X128600000Y-112900000D03*
%TD*%
D13*
%TO.C,J1*%
X147200000Y-126835000D03*
D14*
X147200000Y-124835000D03*
%TD*%
D15*
%TO.C,J4*%
X114808000Y-117856000D03*
D16*
X114808000Y-120396000D03*
X114808000Y-122936000D03*
X114808000Y-125476000D03*
X114808000Y-128016000D03*
%TD*%
D12*
%TO.C,TP4*%
X145500000Y-118000000D03*
%TD*%
M02*
