M48
INCH
T1C0.0118
T2C0.0120
T3C0.0160
T4C0.0236
T5C0.0295
T6C0.0394
T7C0.0787
%
G90
G05
T1
X5.5157Y-4.8242
X5.5157Y-4.8636
X5.5512Y-4.8242
X5.5512Y-4.8636
X5.5866Y-4.8242
X5.5866Y-4.8636
T2
X4.8894Y-4.972
X4.9092Y-5.1497
X4.9291Y-4.972
X5.2218Y-5.1903
X5.2524Y-4.9791
X5.2524Y-5.0177
X5.2598Y-5.189
X5.2716Y-4.9984
X5.2906Y-4.9791
X5.2909Y-5.0173
T3
X4.4803Y-4.3394
X4.4839Y-5.5224
X4.5866Y-4.8504
X4.6063Y-4.9921
X4.6063Y-5.0276
X4.6063Y-5.0669
X4.6063Y-5.1024
X4.6071Y-4.9189
X4.6071Y-4.9528
X4.626Y-4.689
X4.6417Y-4.563
X4.7196Y-4.6443
X4.732Y-4.7304
X4.7835Y-4.8071
X4.789Y-4.9646
X4.8016Y-5.1209
X4.8031Y-4.7393
X4.8091Y-4.9157
X4.8189Y-4.5591
X4.8386Y-4.6443
X4.8397Y-4.9398
X4.9121Y-5.312
X4.959Y-4.8123
X4.9606Y-4.7174
X4.9646Y-4.6457
X4.9736Y-4.352
X4.985Y-5.2657
X4.9944Y-4.9369
X5.0157Y-5.1201
X5.0276Y-4.563
X5.0669Y-4.8425
X5.0984Y-4.563
X5.1Y-4.7984
X5.1024Y-4.8425
X5.1378Y-4.6772
X5.1417Y-4.7283
X5.1465Y-4.8516
X5.1763Y-4.8678
X5.1764Y-4.3492
X5.2008Y-5.1063
X5.2337Y-4.8858
X5.243Y-4.6447
X5.2908Y-4.8913
X5.2992Y-4.8228
X5.3031Y-4.8543
X5.311Y-4.7874
X5.3228Y-4.7323
X5.3232Y-4.9175
X5.3327Y-5.1622
X5.3465Y-4.7717
X5.3622Y-4.3476
X5.3622Y-4.6457
X5.3661Y-4.9409
X5.3858Y-4.7717
X5.3883Y-5.1042
X5.4068Y-4.9229
X5.4272Y-5.0996
X5.4404Y-4.75
X5.5189Y-4.6799
X5.5217Y-5.213
X5.6047Y-4.6953
X5.6299Y-5.126
X5.6339Y-5.2283
X5.634Y-4.9411
X5.6378Y-5.3268
X5.6732Y-4.7362
X5.7087Y-4.7362
X6.022Y-5.5185
X6.0264Y-4.3421
T5
X5.7953Y-4.9148
X5.7953Y-4.9935
T6
X4.52Y-4.64
X4.52Y-4.74
X4.52Y-4.84
X4.52Y-4.94
X4.52Y-5.04
T7
X4.7323Y-4.5118
X5.063Y-4.4449
X5.2795Y-4.4488
X5.7283Y-4.6457
T4
G00X5.0634Y-5.2693
M15
G01X5.0634Y-5.2299
M16
G05
G00X5.0634Y-5.4901
M15
G01X5.0634Y-5.4311
M16
G05
G00X5.4035Y-5.2693
M15
G01X5.4035Y-5.2299
M16
G05
G00X5.4035Y-5.4901
M15
G01X5.4035Y-5.4311
M16
G05
T0
M30
